[
    {
      "Username": "Abby",
      "Gender": "female",
      "DateOfBirth": "1998-12-10",
      "Password": "password",
      "KnownAs": "Abby",
      "Created": "2017-02-15",
      "LastActive": "2017-02-15",
      "Introduction": "Non duis laborum amet dolor reprehenderit. Qui in irure in ad consequat laborum eiusmod do laborum est. Amet irure aute est labore id proident. Aute nostrud do ipsum officia deserunt. Cupidatat dolore ullamco et irure culpa excepteur do cillum mollit pariatur officia ullamco.\r\n",
      "LookingFor": "Eiusmod magna sit ea exercitation pariatur excepteur commodo. Et non nostrud sunt do non. Dolor ipsum adipisicing laboris irure nisi aute et eu dolor. Excepteur nulla est anim dolor id exercitation laborum eu aute. Ea deserunt aliquip labore veniam magna aute elit et ut nostrud ut irure eu.\r\n",
      "Interests": "Et amet dolor ex et commodo labore nisi eu laboris veniam.",
      "City": "Clara",
      "Country": "Switzerland",
      "Photos": [
        {
          "url": "https://randomuser.me/api/portraits/women/52.jpg",
          "isMain": true,
          "description": "Minim esse elit fugiat minim pariatur veniam non est velit Lorem."
        }
      ]
    },
    {
      "Username": "Anita",
      "Gender": "female",
      "DateOfBirth": "1953-07-06",
      "Password": "password",
      "KnownAs": "Anita",
      "Created": "2017-02-18",
      "LastActive": "2017-02-18",
      "Introduction": "Officia elit adipisicing exercitation pariatur quis culpa reprehenderit dolor laboris anim adipisicing nisi. Consectetur enim pariatur ullamco ad sit pariatur excepteur sunt. Elit enim duis ullamco veniam et ad elit.\r\n",
      "LookingFor": "Magna adipisicing ut enim in minim amet qui culpa officia enim esse qui deserunt. Minim laboris eu qui amet. Incididunt consectetur do quis in ea laborum fugiat amet ea aliquip. Sint laboris ex nulla amet elit non.\r\n",
      "Interests": "Ipsum ea nostrud ea nulla duis.",
      "City": "Weedville",
      "Country": "Haiti",
      "Photos": [
        {
          "url": "https://randomuser.me/api/portraits/women/63.jpg",
          "isMain": true,
          "description": "Anim pariatur aliqua anim incididunt minim et cupidatat est commodo."
        }
      ]
    },
    {
      "Username": "Dawn",
      "Gender": "female",
      "DateOfBirth": "1978-07-24",
      "Password": "password",
      "KnownAs": "Dawn",
      "Created": "2017-04-08",
      "LastActive": "2017-04-08",
      "Introduction": "Nisi duis excepteur esse aliqua magna deserunt adipisicing amet voluptate. Quis laboris in irure anim velit eu. Exercitation eu eu cupidatat in reprehenderit occaecat mollit. Non duis aliqua adipisicing voluptate esse quis esse reprehenderit voluptate cupidatat amet nulla duis nisi. Est consectetur non Lorem ex nostrud mollit sunt deserunt proident non. Nulla sint consequat incididunt incididunt ad.\r\n",
      "LookingFor": "Aute occaecat nisi excepteur voluptate ut nulla nostrud. Deserunt tempor dolore cupidatat sunt fugiat proident ad culpa voluptate exercitation amet eu esse consectetur. Sint esse ex consectetur culpa quis ea nisi. Labore voluptate et anim ea ad.\r\n",
      "Interests": "Minim ipsum veniam deserunt et ut.",
      "City": "Wollochet",
      "Country": "Bouvet Island",
      "Photos": [
        {
          "url": "https://randomuser.me/api/portraits/women/14.jpg",
          "isMain": true,
          "description": "In culpa nisi ex culpa veniam."
        }
      ]
    },
    {
      "Username": "Kathy",
      "Gender": "female",
      "DateOfBirth": "1996-12-30",
      "Password": "password",
      "KnownAs": "Kathy",
      "Created": "2017-02-24",
      "LastActive": "2017-02-24",
      "Introduction": "Ipsum eiusmod et officia anim. Officia aute commodo incididunt cillum non duis nisi sint exercitation id. Lorem voluptate voluptate ipsum proident eu eiusmod cupidatat amet.\r\n",
      "LookingFor": "Anim ea ullamco fugiat est fugiat eu id amet est. Anim anim fugiat irure in eiusmod occaecat laboris ad ipsum pariatur officia. Nulla culpa nulla esse non ad elit Lorem aute anim dolore. Anim cillum excepteur exercitation irure adipisicing amet elit labore fugiat dolore nostrud.\r\n",
      "Interests": "Quis aute sunt ad nostrud sint dolor dolor mollit anim anim exercitation ea.",
      "City": "Bloomington",
      "Country": "Cook Islands",
      "Photos": [
        {
          "url": "https://randomuser.me/api/portraits/women/31.jpg",
          "isMain": true,
          "description": "Qui dolore anim et consequat aliquip amet mollit proident in nulla labore dolor."
        }
      ]
    },
    {
      "Username": "Rosalyn",
      "Gender": "female",
      "DateOfBirth": "1992-11-30",
      "Password": "password",
      "KnownAs": "Rosalyn",
      "Created": "2017-03-06",
      "LastActive": "2017-03-06",
      "Introduction": "Culpa esse elit id non cillum. Aliquip ex incididunt laborum veniam exercitation fugiat. Laborum aliquip ex ut cupidatat reprehenderit.\r\n",
      "LookingFor": "Dolor excepteur excepteur cupidatat enim. Id velit occaecat consequat deserunt consequat deserunt aliqua sint incididunt id ullamco reprehenderit qui eu. Qui sit esse nisi officia amet do ex laboris commodo laboris duis. Nostrud incididunt ex id aliquip fugiat velit nulla aliqua. Consequat nostrud aliqua ullamco dolore eiusmod amet. Proident cupidatat tempor consequat veniam in qui eu non non do. Dolor ad laborum ea culpa qui adipisicing amet laborum do laboris non sunt occaecat.\r\n",
      "Interests": "Nostrud id est veniam mollit.",
      "City": "Hiko",
      "Country": "Guatemala",
      "Photos": [
        {
          "url": "https://randomuser.me/api/portraits/women/56.jpg",
          "isMain": true,
          "description": "Adipisicing cupidatat ad sit Lorem irure officia ipsum."
        }
      ]
    },
    {
        "Username": "Bass",
        "Gender": "male",
        "DateOfBirth": "1957-06-18",
        "Password": "password",
        "KnownAs": "Bass",
        "Created": "2017-04-04",
        "LastActive": "2017-04-04",
        "Introduction": "Sint sit sint ullamco amet. Sint eu consectetur fugiat incididunt aliquip. Lorem consequat deserunt nisi adipisicing. Voluptate aliqua ea in nulla cupidatat. Id do sit laboris magna officia laboris proident minim nulla consequat non qui voluptate laboris. Voluptate labore eu deserunt labore reprehenderit dolore minim.\r\n",
        "LookingFor": "Anim culpa nisi ullamco reprehenderit consectetur elit dolore non. Proident ipsum in esse consectetur dolor amet et sunt laboris et proident est voluptate tempor. Eiusmod dolor veniam amet et laborum cillum incididunt consectetur occaecat occaecat eu qui aute. Velit nulla ut ullamco excepteur qui non laborum pariatur consectetur cupidatat aliquip dolore Lorem.\r\n",
        "Interests": "Ex sunt aute cupidatat mollit adipisicing est laborum.",
        "City": "Veyo",
        "Country": "Tokelau",
        "Photos": [
        {
            "url": "https://randomuser.me/api/portraits/men/11.jpg",
            "isMain": true,
            "description": "Aliquip cupidatat ex et ullamco quis cillum incididunt do dolor quis ut ut adipisicing in."
        }
        ]
    },
    {
        "Username": "Finch",
        "Gender": "male",
        "DateOfBirth": "1999-11-15",
        "Password": "password",
        "KnownAs": "Finch",
        "Created": "2017-07-31",
        "LastActive": "2017-07-31",
        "Introduction": "Dolore magna veniam sit sunt. Magna qui occaecat qui et proident velit mollit aliquip duis aliqua veniam anim. Do sunt aliquip ea ad id adipisicing Lorem sint deserunt ullamco cupidatat ipsum. Consequat anim nulla sint non minim dolor eu. Exercitation pariatur sunt Lorem laboris pariatur sunt voluptate ad deserunt.\r\n",
        "LookingFor": "Sunt ut commodo veniam tempor consectetur occaecat consectetur Lorem exercitation qui deserunt ipsum aute pariatur. Consequat non ut ad est mollit aliquip officia aute commodo consequat id cillum. Qui magna amet ut adipisicing proident ea. Fugiat sunt ex enim commodo eu nulla non. Est deserunt ullamco consequat anim laboris qui commodo dolore deserunt quis ex nulla. Incididunt ea laboris nostrud occaecat voluptate ea enim eu nostrud in voluptate pariatur.\r\n",
        "Interests": "Pariatur ut exercitation proident in magna aliqua.",
        "City": "Islandia",
        "Country": "Rwanda",
        "Photos": [
        {
            "url": "https://randomuser.me/api/portraits/men/37.jpg",
            "isMain": true,
            "description": "Veniam ullamco aliqua ullamco voluptate id id nisi cupidatat id."
        }
        ]
    },
    {
        "Username": "Hodge",
        "Gender": "male",
        "DateOfBirth": "1963-01-23",
        "Password": "password",
        "KnownAs": "Hodge",
        "Created": "2017-01-29",
        "LastActive": "2017-01-29",
        "Introduction": "Qui veniam ullamco culpa labore labore dolore proident consectetur id ipsum tempor. Laborum irure fugiat dolore amet adipisicing dolore veniam. Cillum Lorem est proident reprehenderit ad consectetur ad id dolore nulla deserunt. Sunt labore consectetur laboris quis elit aliqua ut ad duis esse ea. Laborum labore cillum commodo dolore occaecat. Sunt dolore dolor do fugiat nostrud magna ipsum et sint adipisicing cillum commodo veniam dolore. Irure ipsum cupidatat nulla qui nulla nisi cupidatat pariatur cillum voluptate elit et.\r\n",
        "LookingFor": "Est ullamco nulla minim consectetur. Tempor ex irure tempor exercitation exercitation eiusmod voluptate adipisicing in reprehenderit ullamco amet. Tempor culpa tempor ipsum excepteur laborum excepteur voluptate laborum excepteur amet laboris. Elit esse voluptate sint non amet eiusmod. Velit aute culpa dolor pariatur non aute quis enim mollit qui. Minim proident adipisicing ea officia amet elit minim non enim in quis.\r\n",
        "Interests": "Aliqua et consequat proident laborum eiusmod ex cupidatat.",
        "City": "Edgar",
        "Country": "Pakistan",
        "Photos": [
        {
            "url": "https://randomuser.me/api/portraits/men/54.jpg",
            "isMain": true,
            "description": "Magna consequat aute aliqua esse ut aute ut ipsum voluptate."
        }
        ]
    },
    {
        "Username": "Zamora",
        "Gender": "male",
        "DateOfBirth": "1976-11-16",
        "Password": "password",
        "KnownAs": "Zamora",
        "Created": "2017-01-30",
        "LastActive": "2017-01-30",
        "Introduction": "Enim elit aute quis proident anim cillum ea sit aliqua. Consequat nisi enim non mollit tempor est sit consectetur labore occaecat minim enim voluptate. Deserunt in ex commodo ea non cillum velit tempor id mollit. Sit in velit minim nostrud esse consectetur duis do deserunt est. Esse elit eiusmod mollit et ad excepteur aliquip et. In in aliqua ut ut in velit do eu labore. Ad incididunt eiusmod anim duis velit adipisicing labore qui sint est est et pariatur.\r\n",
        "LookingFor": "Ipsum cupidatat voluptate eiusmod magna id duis. Ex aliqua velit excepteur ex occaecat aute adipisicing qui voluptate. Fugiat do elit duis tempor veniam eiusmod ut mollit magna adipisicing velit fugiat. Cupidatat ut ea labore proident nulla occaecat pariatur esse magna. Eiusmod aliqua exercitation amet tempor Lorem enim elit aliquip do est eu.\r\n",
        "Interests": "Magna nostrud aute incididunt laboris aliqua mollit magna deserunt.",
        "City": "Roeville",
        "Country": "Niue",
        "Photos": [
        {
            "url": "https://randomuser.me/api/portraits/men/22.jpg",
            "isMain": true,
            "description": "Aliquip eu ullamco est aliqua Lorem excepteur."
        }
        ]
    },
    {
        "Username": "Myers",
        "Gender": "male",
        "DateOfBirth": "1960-01-06",
        "Password": "password",
        "KnownAs": "Myers",
        "Created": "2017-07-28",
        "LastActive": "2017-07-28",
        "Introduction": "Amet quis culpa duis sunt culpa ex deserunt deserunt ipsum pariatur tempor reprehenderit officia. Culpa minim esse duis duis amet ut magna aliqua non nulla do dolor irure. Qui adipisicing qui eiusmod pariatur laborum sit exercitation elit do sint aliqua in. Qui amet duis magna esse excepteur commodo.\r\n",
        "LookingFor": "Lorem magna ut dolor velit tempor quis labore commodo quis elit deserunt aute cillum. Consectetur veniam id eu amet duis culpa proident. Cupidatat dolore esse amet nulla veniam pariatur cupidatat amet amet et nisi excepteur esse. Lorem pariatur nisi quis ea. Non ad nostrud laborum pariatur occaecat anim aute nisi do enim sint cillum. Esse nostrud proident ullamco irure anim reprehenderit consequat. Aliqua nisi Lorem et exercitation.\r\n",
        "Interests": "Velit veniam commodo aliquip tempor Lorem pariatur cillum.",
        "City": "Belgreen",
        "Country": "Yugoslavia",
        "Photos": [
        {
            "url": "https://randomuser.me/api/portraits/men/92.jpg",
            "isMain": true,
            "description": "Quis irure sint culpa occaecat."
        }
        ]
    }
  ]